{
	"info": {
		"_postman_id": "210dc8c7-015f-4b09-892d-b7f4794290ed",
		"name": "TODO API",
		"schema": "https://schema.getpostman.com/json/collection/v2.1.0/collection.json"
	},
	"item": [
		{
			"name": "Create User",
			"request": {
				"method": "POST",
				"header": [],
				"body": {
					"mode": "urlencoded",
					"urlencoded": [
						{
							"key": "login",
							"value": "user2",
							"type": "text"
						},
						{
							"key": "password",
							"value": "123456",
							"type": "text"
						}
					]
				},
				"url": {
					"raw": "{{todo_uri}}/user",
					"host": [
						"{{todo_uri}}"
					],
					"path": [
						"user"
					]
				}
			},
			"response": []
		},
		{
			"name": "Create Todo",
			"request": {
				"auth": {
					"type": "basic",
					"basic": [
						{
							"key": "password",
							"value": "test",
							"type": "string"
						},
						{
							"key": "username",
							"value": "test",
							"type": "string"
						}
					]
				},
				"method": "POST",
				"header": [],
				"body": {
					"mode": "urlencoded",
					"urlencoded": [
						{
							"key": "parent_id",
							"value": "2",
							"type": "text"
						},
						{
							"key": "priority",
							"value": "3",
							"type": "text"
						},
						{
							"key": "title",
							"value": "Level 2",
							"type": "text"
						},
						{
							"key": "description",
							"value": "My sub-task",
							"type": "text"
						}
					]
				},
				"url": {
					"raw": "{{todo_uri}}/todo",
					"host": [
						"{{todo_uri}}"
					],
					"path": [
						"todo"
					]
				}
			},
			"response": []
		},
		{
			"name": "List Todos",
			"protocolProfileBehavior": {
				"disableBodyPruning": true
			},
			"request": {
				"auth": {
					"type": "basic",
					"basic": [
						{
							"key": "password",
							"value": "test",
							"type": "string"
						},
						{
							"key": "username",
							"value": "test",
							"type": "string"
						}
					]
				},
				"method": "GET",
				"header": [],
				"body": {
					"mode": "urlencoded",
					"urlencoded": []
				},
				"url": {
					"raw": "{{todo_uri}}/todo",
					"host": [
						"{{todo_uri}}"
					],
					"path": [
						"todo"
					]
				}
			},
			"response": []
		},
		{
			"name": "Update Todo",
			"request": {
				"auth": {
					"type": "basic",
					"basic": [
						{
							"key": "username",
							"value": "test",
							"type": "string"
						},
						{
							"key": "password",
							"value": "test",
							"type": "string"
						}
					]
				},
				"method": "PATCH",
				"header": [],
				"body": {
					"mode": "urlencoded",
					"urlencoded": [
						{
							"key": "priority",
							"value": "5",
							"type": "text"
						},
						{
							"key": "title",
							"value": "Update",
							"type": "text"
						},
						{
							"key": "description",
							"value": "Something",
							"type": "text"
						}
					]
				},
				"url": {
					"raw": "{{todo_uri}}/todo/12",
					"host": [
						"{{todo_uri}}"
					],
					"path": [
						"todo",
						"12"
					]
				}
			},
			"response": []
		},
		{
			"name": "Complete Todo",
			"request": {
				"auth": {
					"type": "basic",
					"basic": [
						{
							"key": "username",
							"value": "test",
							"type": "string"
						},
						{
							"key": "password",
							"value": "test",
							"type": "string"
						}
					]
				},
				"method": "PATCH",
				"header": [],
				"body": {
					"mode": "urlencoded",
					"urlencoded": []
				},
				"url": {
					"raw": "{{todo_uri}}/todo/2/complete",
					"host": [
						"{{todo_uri}}"
					],
					"path": [
						"todo",
						"2",
						"complete"
					]
				}
			},
			"response": []
		},
		{
			"name": "Delete Todo",
			"request": {
				"auth": {
					"type": "basic",
					"basic": [
						{
							"key": "username",
							"value": "test",
							"type": "string"
						},
						{
							"key": "password",
							"value": "test",
							"type": "string"
						}
					]
				},
				"method": "DELETE",
				"header": [],
				"body": {
					"mode": "urlencoded",
					"urlencoded": []
				},
				"url": {
					"raw": "{{todo_uri}}/todo/14",
					"host": [
						"{{todo_uri}}"
					],
					"path": [
						"todo",
						"14"
					]
				}
			},
			"response": []
		}
	]
}